 [
  {
  "id": "10287735",
  "img": "2016-10-29/581414536bd63",
  "ext": ".jpg",
  "now": "2016-10-29(六)11:15:31",
  "userid": "wsrKBJ6",
  "name": "无名氏",
  "email": "",
  "title": "无标题",
  "content": "求出处| ω・´)",
  "sage": "0",
  "admin": "0",
  "replyCount": "1",
  "replys": [
             {
             "id": "10288045",
             "img": "",
             "ext": "",
             "now": "2016-10-29(六)11:46:24",
             "userid": "FeoopAv",
             "name": "无名氏",
             "email": "",
             "title": "无标题",
             "content": "这熊孩子我见过，日月的宣传片里有他(=ﾟωﾟ)=",
             "sage": "0",
             "admin": "0"
             }
             ]
  },
  {
  "id": "10287906",
  "img": "2016-10-29/5814187107443",
  "ext": ".jpg",
  "now": "2016-10-29(六)11:33:05",
  "userid": "IId1mAt",
  "name": "无名氏",
  "email": "",
  "title": "无标题",
  "content": "纯天然dildo|∀ﾟ",
  "sage": "0",
  "admin": "0",
  "replyCount": "1",
  "replys": [
             {
             "id": "10288043",
             "img": "",
             "ext": "",
             "now": "2016-10-29(六)11:46:14",
             "userid": "rsVfA6r",
             "name": "无名氏",
             "email": "",
             "title": "无标题",
             "content": "|∀ﾟdildo",
             "sage": "0",
             "admin": "0"
             }
             ]
  },
  {
  "id": "10287544",
  "img": "2016-10-29/58140fae35940",
  "ext": ".png",
  "now": "2016-10-29(六)10:55:42",
  "userid": "NUOgL3v",
  "name": "无名氏",
  "email": "",
  "title": "无标题",
  "content": "有人知道这种情况怎么解决吗？手机是s7e<br />\n( ☉д⊙)←左眼",
  "sage": "0",
  "admin": "0",
  "remainReplys": 10,
  "replyCount": "15",
  "replys": [
             {
             "id": "10287895",
             "img": "",
             "ext": "",
             "now": "2016-10-29(六)11:31:33",
             "userid": "47IHufM",
             "name": "无名氏",
             "email": "",
             "title": "无标题",
             "content": "换字体。。",
             "sage": "0",
             "admin": "0"
             },
             {
             "id": "10287922",
             "img": "2016-10-29/581418a6bdf30",
             "ext": ".jpg",
             "now": "2016-10-29(六)11:33:59",
             "userid": "cpV8o9S",
             "name": "无名氏",
             "email": "",
             "title": "无标题",
             "content": "( ☉д⊙)，S7E，眼睛正常，系统字体。",
             "sage": "0",
             "admin": "0"
             },
             {
             "id": "10287935",
             "img": "",
             "ext": "",
             "now": "2016-10-29(六)11:35:44",
             "userid": "YfPqt71",
             "name": "无名氏",
             "email": "",
             "title": "无标题",
             "content": "&gt;&gt;No.10287922<br />\n用的是紫岛啦⊂彡☆))д´)",
             "sage": "0",
             "admin": "0"
             },
             {
             "id": "10287937",
             "img": "",
             "ext": "",
             "now": "2016-10-29(六)11:35:50",
             "userid": "DyHqNrE",
             "name": "无名氏",
             "email": "",
             "title": "无标题",
             "content": "( ⊙д⊙)",
             "sage": "0",
             "admin": "0"
             },
             {
             "id": "10287942",
             "img": "",
             "ext": "",
             "now": "2016-10-29(六)11:37:07",
             "userid": "PeVXGGz",
             "name": "无名氏",
             "email": "",
             "title": "无标题",
             "content": "&gt;&gt;No.10287544<br />\n这不是右眼吗σ`∀´)",
             "sage": "0",
             "admin": "0"
             }
             ]
  },
  {
  "id": "10286674",
  "img": "",
  "ext": "",
  "now": "2016-10-29(六)09:00:31",
  "userid": "ZYMWicx",
  "name": "无名氏",
  "email": "",
  "title": "无标题",
  "content": "下大雨还开运动会(|||ﾟДﾟ)还不准走(╬ﾟдﾟ)垃圾学校 ﾟ∀ﾟ)σ",
  "sage": "0",
  "admin": "0",
  "remainReplys": 4,
  "replyCount": "9",
  "replys": [
             {
             "id": "10286744",
             "img": "",
             "ext": "",
             "now": "2016-10-29(六)09:11:17",
             "userid": "MuTexuK",
             "name": "无名氏",
             "email": "",
             "title": "无标题",
             "content": "走了会怎样？",
             "sage": "0",
             "admin": "0"
             },
             {
             "id": "10286749",
             "img": "",
             "ext": "",
             "now": "2016-10-29(六)09:11:58",
             "userid": "3PZQvE4",
             "name": "无名氏",
             "email": "",
             "title": "无标题",
             "content": "冻住不准走(*´∀`)",
             "sage": "0",
             "admin": "0"
             },
             {
             "id": "10286762",
             "img": "",
             "ext": "",
             "now": "2016-10-29(六)09:13:47",
             "userid": "ZYMWicx",
             "name": "无名氏",
             "email": "",
             "title": "无标题",
             "content": "&gt;&gt;No.10286744<br />\n会被辅导员找麻烦|д` )",
             "sage": "0",
             "admin": "0"
             },
             {
             "id": "10286767",
             "img": "2016-06-07/5755b129bb5db",
             "ext": ".jpg",
             "now": "2016-10-29(六)09:14:46",
             "userid": "CpjuapU",
             "name": "无名氏",
             "email": "",
             "title": "无标题",
             "content": "下大雨(＾o＾)ﾉ",
             "sage": "0",
             "admin": "0"
             },
             {
             "id": "10286774",
             "img": "",
             "ext": "",
             "now": "2016-10-29(六)09:15:33",
             "userid": "aEwAUiI",
             "name": "无名氏",
             "email": "",
             "title": "无标题",
             "content": "怎么知道人走没走？ 糊弄下签到的不就好了...",
             "sage": "0",
             "admin": "0"
             }
             ]
  },
  {
  "id": "10279395",
  "img": "2016-10-28/5812ff4c15aef",
  "ext": ".jpg",
  "now": "2016-10-28(五)15:33:32",
  "userid": "ur53a8n",
  "name": "无名氏",
  "email": "",
  "title": "无标题",
  "content": "朱军,怎么才能像H漫里那样射那么大量的精液呢?<br />\r\n<br />\r\n每次都还能射满子宫甚至溢出来~~~<br />\r\n<br />\r\n好羡慕噢,PO每次只能射一点点,是不是只有我一个是这样啊   |д` )",
  "sage": "0",
  "admin": "0",
  "remainReplys": 54,
  "replyCount": "59",
  "replys": [
             {
             "id": "10282504",
             "img": "",
             "ext": "",
             "now": "2016-10-28(五)20:30:26",
             "userid": "VC9h9XJ",
             "name": "无名氏",
             "email": "",
             "title": "无标题",
             "content": "( ・_ゝ・)下辈子投胎当猪，那才叫厉害呢",
             "sage": "0",
             "admin": "0"
             },
             {
             "id": "10282733",
             "img": "",
             "ext": "",
             "now": "2016-10-28(五)20:58:16",
             "userid": "u9ApI0C",
             "name": "无名氏",
             "email": "",
             "title": "无标题",
             "content": "用针筒打回去的考虑过体内压力吗？考虑过膀胱的感受吗！知道什么叫三花聚顶吗？问问段王爷是什么感受！从尿道里出来就能爽翻的话我憋一天呢岂不是直接爽死|∀` )",
             "sage": "0",
             "admin": "0"
             },
             {
             "id": "10282920",
             "img": "",
             "ext": "",
             "now": "2016-10-28(五)21:17:13",
             "userid": "k5tXKOX",
             "name": "无名氏",
             "email": "",
             "title": "无标题",
             "content": "&gt;&gt;No.10282733<br />\n憋尿很久再洒出来的时候不是贼鸡吧舒服吗",
             "sage": "0",
             "admin": "0"
             },
             {
             "id": "10283769",
             "img": "",
             "ext": "",
             "now": "2016-10-28(五)22:51:28",
             "userid": "X0Kp2Lk",
             "name": "无名氏",
             "email": "",
             "title": "无标题",
             "content": "&gt;&gt;No.10282733<br />\n什么叫三花聚顶呢？",
             "sage": "0",
             "admin": "0"
             },
             {
             "id": "10283873",
             "img": "",
             "ext": "",
             "now": "2016-10-28(五)23:04:08",
             "userid": "3nlADV5",
             "name": "无名氏",
             "email": "",
             "title": "无标题",
             "content": "好像有一张有一桶的gif，但是他们只给我看了前面一点，然后就开始疯狂讨论，留下一脸懵逼的我",
             "sage": "0",
             "admin": "0"
             }
             ]
  },
  {
  "id": "10287321",
  "img": "",
  "ext": "",
  "now": "2016-10-29(六)10:32:11",
  "userid": "ALdCJYH",
  "name": "无名氏",
  "email": "",
  "title": "无标题",
  "content": "刚撸了一罐，感觉要损失营养，所以用手压着用力往回吸",
  "sage": "0",
  "admin": "0",
  "remainReplys": 11,
  "replyCount": "16",
  "replys": [
             {
             "id": "10287572",
             "img": "",
             "ext": "",
             "now": "2016-10-29(六)10:58:02",
             "userid": "o8ktvx6",
             "name": "无名氏",
             "email": "",
             "title": "无标题",
             "content": "&gt;&gt;No.10287321<br />\n准备得前列腺炎吧",
             "sage": "0",
             "admin": "0"
             },
             {
             "id": "10287634",
             "img": "",
             "ext": "",
             "now": "2016-10-29(六)11:03:32",
             "userid": "sDiDm6A",
             "name": "无名氏",
             "email": "",
             "title": "无标题",
             "content": "&gt;&gt;No.10287377<br />\n会导致炎症|∀ﾟ",
             "sage": "0",
             "admin": "0"
             },
             {
             "id": "10287654",
             "img": "",
             "ext": "",
             "now": "2016-10-29(六)11:06:16",
             "userid": "1H5iglS",
             "name": "无名氏",
             "email": "",
             "title": "无标题",
             "content": "σ`∀´)uccu还一脸得意的模样",
             "sage": "0",
             "admin": "0"
             },
             {
             "id": "10287723",
             "img": "",
             "ext": "",
             "now": "2016-10-29(六)11:13:47",
             "userid": "0uwn018",
             "name": "无名氏",
             "email": "",
             "title": "无标题",
             "content": "po不会以为自己很聪明吧，快住手",
             "sage": "0",
             "admin": "0"
             },
             {
             "id": "10287755",
             "img": "",
             "ext": "",
             "now": "2016-10-29(六)11:17:19",
             "userid": "dVzV632",
             "name": "无名氏",
             "email": "",
             "title": "无标题",
             "content": "(´ﾟДﾟ`)罐？<br />\n345毫升？",
             "sage": "0",
             "admin": "0"
             }
             ]
  },
  {
  "id": "10287405",
  "img": "",
  "ext": "",
  "now": "2016-10-29(六)10:42:16",
  "userid": "QbpeZD6",
  "name": "无名氏",
  "email": "",
  "title": "无标题",
  "content": "家里不太富裕的学妹换了6S 我的第一反应是不是丫出去援 交了<br />\n然后这两天还和我说不住宿舍了，我的第一反映是她被包 养了|ー` )<br />\n我的思想为什么如此的龌 龊( ´_ゝ`)旦 ",
  "sage": "0",
  "admin": "0",
  "remainReplys": 26,
  "replyCount": "31",
  "replys": [
             {
             "id": "10287789",
             "img": "",
             "ext": "",
             "now": "2016-10-29(六)11:21:09",
             "userid": "QbpeZD6",
             "name": "无名氏",
             "email": "",
             "title": "无标题",
             "content": "&gt;&gt;No.10287699<br />\n饿 她曾经是肥肥唯一的旅性朋友 虽然现在没交集了<br />\n很老实一姑娘  如果真被包养还是挺心疼的 <br />\n要保养不会来找我啊：师哥工作了几年 还是存了些钱的( ´д`)  ",
             "sage": "0",
             "admin": "0"
             },
             {
             "id": "10287803",
             "img": "",
             "ext": "",
             "now": "2016-10-29(六)11:22:04",
             "userid": "tpmfPL7",
             "name": "无名氏",
             "email": "",
             "title": "无标题",
             "content": "&gt;&gt;No.10287789<br />\n也许是被你油到了| ω・´)",
             "sage": "0",
             "admin": "0"
             },
             {
             "id": "10287804",
             "img": "",
             "ext": "",
             "now": "2016-10-29(六)11:22:07",
             "userid": "YGjl7gg",
             "name": "无名氏",
             "email": "",
             "title": "无标题",
             "content": "ﾟ∀ﾟ)σ就算是o交",
             "sage": "0",
             "admin": "0"
             },
             {
             "id": "10287915",
             "img": "",
             "ext": "",
             "now": "2016-10-29(六)11:33:27",
             "userid": "fJxcZYT",
             "name": "无名氏",
             "email": "",
             "title": "无标题",
             "content": "uccu",
             "sage": "0",
             "admin": "0"
             },
             {
             "id": "10287939",
             "img": "",
             "ext": "",
             "now": "2016-10-29(六)11:36:08",
             "userid": "hzGTiav",
             "name": "无名氏",
             "email": "",
             "title": "无标题",
             "content": "&gt;&gt;No.10287436<br />\n肯定是校园借贷(｀･ω･)",
             "sage": "0",
             "admin": "0"
             }
             ]
  },
  {
  "id": "10287535",
  "img": "2016-10-29/58140f7aea064",
  "ext": ".jpg",
  "now": "2016-10-29(六)10:54:50",
  "userid": "ALCCNie",
  "name": "无名氏",
  "email": "",
  "title": "无标题",
  "content": "贵a被知乎鄙视了啊",
  "sage": "0",
  "admin": "0",
  "remainReplys": 40,
  "replyCount": "45",
  "replys": [
             {
             "id": "10287867",
             "img": "",
             "ext": "",
             "now": "2016-10-29(六)11:28:46",
             "userid": "ukReSy9",
             "name": "无名氏",
             "email": "",
             "title": "无标题",
             "content": "知乎也不见得水平多高，在我感兴趣的领域，现在多数回答都是胡说八道。",
             "sage": "0",
             "admin": "0"
             },
             {
             "id": "10287917",
             "img": "",
             "ext": "",
             "now": "2016-10-29(六)11:33:35",
             "userid": "Z9rGpu9",
             "name": "无名氏",
             "email": "",
             "title": "无标题",
             "content": "其实我以前一直以为知乎的平均水平还可以。<br />\n直到前天我看到一个自称美国前50本科毕业老公美国重点大学毕业的妹子讨论为什么喜欢张艺兴的答案被1000＋赞然后出现在&quot;今日最热回答&quot;里………<br />\n( ´ー`)",
             "sage": "0",
             "admin": "0"
             },
             {
             "id": "10287947",
             "img": "",
             "ext": "",
             "now": "2016-10-29(六)11:37:31",
             "userid": "pGmV2IU",
             "name": "无名氏",
             "email": "",
             "title": "无标题",
             "content": "逼乎不是被扒过好几个知名大牛的学历职位都是瞎吹逼的吗，逼乎又不是白叫的",
             "sage": "0",
             "admin": "0"
             },
             {
             "id": "10287957",
             "img": "",
             "ext": "",
             "now": "2016-10-29(六)11:38:55",
             "userid": "dFP9TZE",
             "name": "无名氏",
             "email": "",
             "title": "无标题",
             "content": "|∀` )我觉得这串根本没有继续讨论下去的必要",
             "sage": "0",
             "admin": "0"
             },
             {
             "id": "10287984",
             "img": "",
             "ext": "",
             "now": "2016-10-29(六)11:41:28",
             "userid": "XvBGRfj",
             "name": "无名氏",
             "email": "",
             "title": "无标题",
             "content": "&gt;&gt;No.10287917<br />\n知乎答案的点赞量和答案的质量是没有任何关系的。亲测",
             "sage": "0",
             "admin": "0"
             }
             ]
  },
  {
  "id": "10288017",
  "img": "",
  "ext": "",
  "now": "2016-10-29(六)11:44:19",
  "userid": "1V5dvkv",
  "name": "无名氏",
  "email": "",
  "title": "无标题",
  "content": "华为那个默认的creamy铃声真好听<br />\n| ω・´)我决定下个手机买华为了",
  "sage": "0",
  "admin": "0",
  "replyCount": "0",
  "replys": []
  },
  {
  "id": "10287160",
  "img": "",
  "ext": "",
  "now": "2016-10-29(六)10:13:06",
  "userid": "oC4Db5u",
  "name": "无名氏",
  "email": "",
  "title": "无标题",
  "content": "下个星期po去杭州跑马拉松了，有肥肥推荐点杭州好的好玩的吗",
  "sage": "0",
  "admin": "0",
  "remainReplys": 2,
  "replyCount": "7",
  "replys": [
             {
             "id": "10287171",
             "img": "2016-10-29/581405f27036c",
             "ext": ".jpg",
             "now": "2016-10-29(六)10:14:11",
             "userid": "oC4Db5u",
             "name": "无名氏",
             "email": "",
             "title": "无标题",
             "content": "祭品！",
             "sage": "0",
             "admin": "0"
             },
             {
             "id": "10287175",
             "img": "2016-10-29/58140608359d2",
             "ext": ".jpg",
             "now": "2016-10-29(六)10:14:33",
             "userid": "oC4Db5u",
             "name": "无名氏",
             "email": "",
             "title": "无标题",
             "content": "分享图片",
             "sage": "0",
             "admin": "0"
             },
             {
             "id": "10287625",
             "img": "",
             "ext": "",
             "now": "2016-10-29(六)11:02:24",
             "userid": "z5hfNxV",
             "name": "无名氏",
             "email": "",
             "title": "无标题",
             "content": "蔷薇花园",
             "sage": "0",
             "admin": "0"
             },
             {
             "id": "10287798",
             "img": "",
             "ext": "",
             "now": "2016-10-29(六)11:21:48",
             "userid": "gwiCydd",
             "name": "无名氏",
             "email": "",
             "title": "无标题",
             "content": "西湖边上没啥意思就别去了",
             "sage": "0",
             "admin": "0"
             },
             {
             "id": "10287892",
             "img": "",
             "ext": "",
             "now": "2016-10-29(六)11:31:22",
             "userid": "B3WKSem",
             "name": "无名氏",
             "email": "",
             "title": "无标题",
             "content": "各种博物馆| ω・´)",
             "sage": "0",
             "admin": "0"
             }
             ]
  },
  {
  "id": "10288002",
  "img": "",
  "ext": "",
  "now": "2016-10-29(六)11:42:58",
  "userid": "LZd6jBy",
  "name": "无名氏",
  "email": "",
  "title": "无标题",
  "content": "好像昨天的宵夜吃坏肚子了 早上9点到现在上了两趟厕所 拉的粑粑全是黑的稀的",
  "sage": "0",
  "admin": "0",
  "replyCount": "0",
  "replys": []
  },
  {
  "id": "10276758",
  "img": "",
  "ext": "",
  "now": "2016-10-28(五)11:28:49",
  "userid": "oAU748W",
  "name": "无名氏",
  "email": "",
  "title": "无标题",
  "content": "住户带着民警来我这投诉，我请他们吃了个橘子，事情解决了～( ´_ゝ`)",
  "sage": "0",
  "admin": "0",
  "remainReplys": 48,
  "replyCount": "53",
  "replys": [
             {
             "id": "10284368",
             "img": "",
             "ext": "",
             "now": "2016-10-28(五)23:47:05",
             "userid": "iKtsu1J",
             "name": "无名氏",
             "email": "",
             "title": "无标题",
             "content": "总管漏会怎样",
             "sage": "0",
             "admin": "0"
             },
             {
             "id": "10284379",
             "img": "",
             "ext": "",
             "now": "2016-10-28(五)23:48:24",
             "userid": "HeCRRm0",
             "name": "无名氏",
             "email": "",
             "title": "无标题",
             "content": "&gt;&gt;No.10276897<br />\n你也好意思就给3片(=ﾟωﾟ)=",
             "sage": "0",
             "admin": "0"
             },
             {
             "id": "10287164",
             "img": "",
             "ext": "",
             "now": "2016-10-29(六)10:13:24",
             "userid": "oAU748W",
             "name": "无名氏",
             "email": "",
             "title": "无标题",
             "content": "&gt;&gt;No.10284379<br />\n我就一个橘子⊂彡☆))д`)",
             "sage": "0",
             "admin": "0"
             },
             {
             "id": "10287186",
             "img": "",
             "ext": "",
             "now": "2016-10-29(六)10:15:29",
             "userid": "WAlbCYq",
             "name": "无名氏",
             "email": "",
             "title": "无标题",
             "content": "( ´_ゝ`)=DDD我见证了新梗的诞生",
             "sage": "0",
             "admin": "0"
             },
             {
             "id": "10287255",
             "img": "",
             "ext": "",
             "now": "2016-10-29(六)10:24:19",
             "userid": "X72ZXzf",
             "name": "无名氏",
             "email": "",
             "title": "无标题",
             "content": "( ´_ゝ`)＝DDDpo你太小气了 好意思给",
             "sage": "0",
             "admin": "0"
             }
             ]
  },
  {
  "id": "10287888",
  "img": "",
  "ext": "",
  "now": "2016-10-29(六)11:31:02",
  "userid": "AAqw2cT",
  "name": "无名氏",
  "email": "",
  "title": "无标题",
  "content": "深圳卫视在放港台的倚天屠龙记，人物好丑。",
  "sage": "0",
  "admin": "0",
  "replyCount": "5",
  "replys": [
             {
             "id": "10287900",
             "img": "",
             "ext": "",
             "now": "2016-10-29(六)11:32:21",
             "userid": "lLLqn1W",
             "name": "无名氏",
             "email": "",
             "title": "无标题",
             "content": "印象中只有黎姿的赵敏，佘诗曼的周芷若",
             "sage": "0",
             "admin": "0"
             },
             {
             "id": "10287907",
             "img": "",
             "ext": "",
             "now": "2016-10-29(六)11:33:05",
             "userid": "9LxClOh",
             "name": "无名氏",
             "email": "",
             "title": "无标题",
             "content": "这版的小昭惨不忍睹<br />\n不，应该叫老昭",
             "sage": "0",
             "admin": "0"
             },
             {
             "id": "10287910",
             "img": "",
             "ext": "",
             "now": "2016-10-29(六)11:33:17",
             "userid": "DyHqNrE",
             "name": "无名氏",
             "email": "",
             "title": "无标题",
             "content": "( `д´)主角居然是个中年瘦人",
             "sage": "0",
             "admin": "0"
             },
             {
             "id": "10287995",
             "img": "",
             "ext": "",
             "now": "2016-10-29(六)11:42:30",
             "userid": "5elMs36",
             "name": "无名氏",
             "email": "",
             "title": "无标题",
             "content": "&gt;&gt;No.10287907<br />\n我一直分不清江美琪和何超仪⋯⋯",
             "sage": "0",
             "admin": "0"
             },
             {
             "id": "10288008",
             "img": "",
             "ext": "",
             "now": "2016-10-29(六)11:43:23",
             "userid": "5elMs36",
             "name": "无名氏",
             "email": "",
             "title": "无标题",
             "content": "&gt;&gt;No.10287910 娱乐圈中有名的斯文败类衣冠禽兽",
             "sage": "0",
             "admin": "0"
             }
             ]
  },
  {
  "id": "10263809",
  "img": "",
  "ext": "",
  "now": "2016-10-27(四)10:08:18",
  "userid": "ALdCJYH",
  "name": "无名氏",
  "email": "",
  "title": "无标题",
  "content": "朱军！！粗大事了，我被酒托女还是约跑女加微信1了",
  "sage": "0",
  "admin": "0",
  "remainReplys": 200,
  "replyCount": "205",
  "replys": [
             {
             "id": "10278267",
             "img": "",
             "ext": "",
             "now": "2016-10-28(五)13:41:01",
             "userid": "caZ9hMm",
             "name": "无名氏",
             "email": "",
             "title": "无标题",
             "content": "蛤蛤蛤蛤",
             "sage": "0",
             "admin": "0"
             },
             {
             "id": "10278309",
             "img": "2016-10-28/5812e5a342bd5",
             "ext": ".gif",
             "now": "2016-10-28(五)13:44:03",
             "userid": "bGfdWSr",
             "name": "无名氏",
             "email": "",
             "title": "无标题",
             "content": "分享图片",
             "sage": "0",
             "admin": "0"
             },
             {
             "id": "10278365",
             "img": "2016-10-28/5812e6ad32167",
             "ext": ".jpg",
             "now": "2016-10-28(五)13:48:29",
             "userid": "nFI9lxv",
             "name": "无名氏",
             "email": "",
             "title": "无标题",
             "content": "淦你娘蛤爆",
             "sage": "0",
             "admin": "0"
             },
             {
             "id": "10278418",
             "img": "",
             "ext": "",
             "now": "2016-10-28(五)13:53:39",
             "userid": "UpypX7q",
             "name": "无名氏",
             "email": "",
             "title": "无标题",
             "content": "哈哈哈哈哈( ﾟ∀。)",
             "sage": "0",
             "admin": "0"
             },
             {
             "id": "10278491",
             "img": "",
             "ext": "",
             "now": "2016-10-28(五)13:59:37",
             "userid": "qYQnQUs",
             "name": "无名氏",
             "email": "",
             "title": "无标题",
             "content": "&gt;&gt;No.10278253<br />\r\n哈哈哈哈哈哈哈哈哈哈哈哈几把都笑校报",
             "sage": "0",
             "admin": "0"
             }
             ]
  },
  {
  "id": "10287502",
  "img": "",
  "ext": "",
  "now": "2016-10-29(六)10:52:00",
  "userid": "XhBJO3Y",
  "name": "无名氏",
  "email": "",
  "title": "无标题",
  "content": "网易云好厉害，手机连我本地的歌也删，之前用网易云下载的一首粉妈的歌just like fire，今天打开发现被版权了。(=ﾟωﾟ)=",
  "sage": "0",
  "admin": "0",
  "remainReplys": 3,
  "replyCount": "8",
  "replys": [
             {
             "id": "10287680",
             "img": "",
             "ext": "",
             "now": "2016-10-29(六)11:09:50",
             "userid": "HeCRRm0",
             "name": "无名氏",
             "email": "",
             "title": "无标题",
             "content": "是你用软件清了吧，我也试过<br />\n清网易云的缓存歌就没了 ",
             "sage": "0",
             "admin": "0"
             },
             {
             "id": "10287695",
             "img": "",
             "ext": "",
             "now": "2016-10-29(六)11:11:14",
             "userid": "rZZgHsu",
             "name": "无名氏",
             "email": "",
             "title": "无标题",
             "content": "&gt;&gt;No.10287680<br />\n被版权后是会被网易云删除的，所以我下载任何歌都会备份到别的文件夹，甚至百度云也会",
             "sage": "0",
             "admin": "0"
             },
             {
             "id": "10287707",
             "img": "",
             "ext": "",
             "now": "2016-10-29(六)11:12:13",
             "userid": "73tC06J",
             "name": "无名氏",
             "email": "",
             "title": "无标题",
             "content": "不会吧，我之前下的1989的歌一直没被删",
             "sage": "0",
             "admin": "0"
             },
             {
             "id": "10287737",
             "img": "",
             "ext": "",
             "now": "2016-10-29(六)11:15:50",
             "userid": "ubOjwwt",
             "name": "无名氏",
             "email": "",
             "title": "无标题",
             "content": "&gt;&gt;No.10287680<br />\n是下载的，不是缓存的，但没有备份。。。。真是强啊，把我本地的歌删了",
             "sage": "0",
             "admin": "0"
             },
             {
             "id": "10287848",
             "img": "",
             "ext": "",
             "now": "2016-10-29(六)11:26:56",
             "userid": "wMkI5uh",
             "name": "无名氏",
             "email": "",
             "title": "无标题",
             "content": "大概是用网易下的吧，为了避免被告呗，也是没办法",
             "sage": "0",
             "admin": "0"
             }
             ]
  },
  {
  "id": "10287811",
  "img": "",
  "ext": "",
  "now": "2016-10-29(六)11:23:17",
  "userid": "w19LMgL",
  "name": "无名氏",
  "email": "",
  "title": "无标题",
  "content": "解梦一<br />\n&gt;&gt;梦回高中，平常不走路回家的我和不走路回家的漂亮女同学在梦里硬是要淦你娘一起走路回家，极尽暧昧之能事。<br />\n&gt;&gt;下雨了， 街边的商铺放起了“I fall in love”的音乐，顺便求问a岛模糊搜索这是哪首歌，淦你娘浪漫爆！<br />\n&gt;&gt;女同学紧紧地抓着我的一根手指和我小跑在雨中。我不明白她为什么只紧紧抓着我的一根手指，但这很浪漫啊。 <br />\n&gt;&gt;重点来了，梦醒了，我发现我的右手正在紧紧握着晨勃中的老二。<br />\n&gt;&gt;原来，梦中被女同学握着手指的感觉，来自于右手握着晨勃老二的感觉。<br />\n&gt;&gt;真TM金属( ` ・´)",
  "sage": "0",
  "admin": "0",
  "remainReplys": 3,
  "replyCount": "8",
  "replys": [
             {
             "id": "10287818",
             "img": "",
             "ext": "",
             "now": "2016-10-29(六)11:24:00",
             "userid": "YfPqt71",
             "name": "无名氏",
             "email": "",
             "title": "无标题",
             "content": "弗",
             "sage": "0",
             "admin": "0"
             },
             {
             "id": "10287840",
             "img": "",
             "ext": "",
             "now": "2016-10-29(六)11:26:10",
             "userid": "RS3AXWa",
             "name": "无名氏",
             "email": "",
             "title": "无标题",
             "content": "黑道圣徒里的电台也有这歌     当时我就疯狂听这电台(｀･ω･)",
             "sage": "0",
             "admin": "0"
             },
             {
             "id": "10287855",
             "img": "",
             "ext": "",
             "now": "2016-10-29(六)11:27:35",
             "userid": "PRcAzrY",
             "name": "无名氏",
             "email": "",
             "title": "无标题",
             "content": "你的二弟和女同学的手指一样粗细？|∀` )",
             "sage": "0",
             "admin": "0"
             },
             {
             "id": "10287861",
             "img": "",
             "ext": "",
             "now": "2016-10-29(六)11:28:05",
             "userid": "RBa3zfA",
             "name": "无名氏",
             "email": "",
             "title": "无标题",
             "content": "你想淦你娘",
             "sage": "0",
             "admin": "0"
             },
             {
             "id": "10287868",
             "img": "",
             "ext": "",
             "now": "2016-10-29(六)11:28:59",
             "userid": "MPp0RTs",
             "name": "无名氏",
             "email": "",
             "title": "无标题",
             "content": "棍状物| ω・´)",
             "sage": "0",
             "admin": "0"
             }
             ]
  },
  {
  "id": "10286435",
  "img": "",
  "ext": "",
  "now": "2016-10-29(六)08:13:36",
  "userid": "mzGNspl",
  "name": "无名氏",
  "email": "",
  "title": "无标题",
  "content": "中国的白酒，是不是多好的也只能给同样喝这种粮食酒的国家喝?欧美那边喝着有感觉吗…( ﾟ∀。)",
  "sage": "0",
  "admin": "0",
  "remainReplys": 7,
  "replyCount": "12",
  "replys": [
             {
             "id": "10286503",
             "img": "",
             "ext": "",
             "now": "2016-10-29(六)08:28:55",
             "userid": "D3vSHfR",
             "name": "无名氏",
             "email": "",
             "title": "无标题",
             "content": "&gt;&gt;No.10286470<br />\n哈哈哈哈",
             "sage": "0",
             "admin": "0"
             },
             {
             "id": "10286507",
             "img": "",
             "ext": "",
             "now": "2016-10-29(六)08:29:46",
             "userid": "tuDVIFB",
             "name": "无名氏",
             "email": "",
             "title": "无标题",
             "content": "&gt;&gt;No.10286470<br />\n( ﾟ∀。)这段子假到尬爆",
             "sage": "0",
             "admin": "0"
             },
             {
             "id": "10286519",
             "img": "",
             "ext": "",
             "now": "2016-10-29(六)08:32:17",
             "userid": "oJgKS2h",
             "name": "无名氏",
             "email": "",
             "title": "无标题",
             "content": "&gt;&gt;No.10286470<br />\n地上有台鼓风机+地暖 我知道的( ´_ゝ`)",
             "sage": "0",
             "admin": "0"
             },
             {
             "id": "10286524",
             "img": "",
             "ext": "",
             "now": "2016-10-29(六)08:33:02",
             "userid": "Eibz9sN",
             "name": "无名氏",
             "email": "",
             "title": "无标题",
             "content": "&gt;&gt;No.10286470<br />\n哈哈哈哈哈哈哈哈哈哈哈",
             "sage": "0",
             "admin": "0"
             },
             {
             "id": "10286527",
             "img": "",
             "ext": "",
             "now": "2016-10-29(六)08:33:58",
             "userid": "eUrYhEB",
             "name": "无名氏",
             "email": "",
             "title": "无标题",
             "content": "我只知道叶利钦挺喜欢茅台( ﾟ∀ﾟ)",
             "sage": "0",
             "admin": "0"
             }
             ]
  },
  {
  "id": "10287741",
  "img": "",
  "ext": "",
  "now": "2016-10-29(六)11:16:08",
  "userid": "wQPzU5G",
  "name": "无名氏",
  "email": "",
  "title": "无标题",
  "content": "为什么大家都觉得双休是正常的，明明94年才有的规定",
  "sage": "0",
  "admin": "0",
  "remainReplys": 1,
  "replyCount": "6",
  "replys": [
             {
             "id": "10287776",
             "img": "",
             "ext": "",
             "now": "2016-10-29(六)11:19:49",
             "userid": "sWS7ke3",
             "name": "无名氏",
             "email": "",
             "title": "无标题",
             "content": "因为“大家”都是94年后懂事的吧……没听说过战斗的星期天",
             "sage": "0",
             "admin": "0"
             },
             {
             "id": "10287807",
             "img": "",
             "ext": "",
             "now": "2016-10-29(六)11:22:43",
             "userid": "A4hH5SB",
             "name": "无名氏",
             "email": "",
             "title": "无标题",
             "content": "我说我总纳闷幼儿园时候为啥周六也要上课",
             "sage": "0",
             "admin": "0"
             },
             {
             "id": "10287837",
             "img": "",
             "ext": "",
             "now": "2016-10-29(六)11:25:58",
             "userid": "wQPzU5G",
             "name": "无名氏",
             "email": "",
             "title": "无标题",
             "content": "&gt;&gt;No.10287776<br />\r\nΣ( ﾟдﾟ)我老板就是这样跟我讲的，所以我今天还在上班",
             "sage": "0",
             "admin": "0"
             },
             {
             "id": "10287931",
             "img": "",
             "ext": "",
             "now": "2016-10-29(六)11:35:00",
             "userid": "fJxcZYT",
             "name": "无名氏",
             "email": "",
             "title": "无标题",
             "content": "看什么行业了 广告设计狗表示双休 51 国庆 之类的不知道是什么",
             "sage": "0",
             "admin": "0"
             },
             {
             "id": "10287953",
             "img": "",
             "ext": "",
             "now": "2016-10-29(六)11:38:27",
             "userid": "sTu49iG",
             "name": "无名氏",
             "email": "",
             "title": "无标题",
             "content": "弯弯人民现在还在为双休日奋斗呢( ´_ゝ`)",
             "sage": "0",
             "admin": "0"
             }
             ]
  },
  {
  "id": "10283740",
  "img": "",
  "ext": "",
  "now": "2016-10-28(五)22:48:07",
  "userid": "RSwokHV",
  "name": "无名氏",
  "email": "",
  "title": "无标题",
  "content": "玩大型游戏几分钟必蓝屏<br />\n看网页等平常使用会不定时无征兆蓝屏<br />\n装系统的SSD测试没有问题<br />\n是不是能断定内存出问题了",
  "sage": "0",
  "admin": "0",
  "remainReplys": 9,
  "replyCount": "14",
  "replys": [
             {
             "id": "10283959",
             "img": "",
             "ext": "",
             "now": "2016-10-28(五)23:12:21",
             "userid": "JYTPRbk",
             "name": "无名氏",
             "email": "",
             "title": "无标题",
             "content": "蓝屏的返回信息你从来不看吗",
             "sage": "0",
             "admin": "0"
             },
             {
             "id": "10284688",
             "img": "",
             "ext": "",
             "now": "2016-10-29(六)00:17:42",
             "userid": "1JoUT1Y",
             "name": "无名氏",
             "email": "",
             "title": "无标题",
             "content": "显卡爆炸？",
             "sage": "0",
             "admin": "0"
             },
             {
             "id": "10284701",
             "img": "",
             "ext": "",
             "now": "2016-10-29(六)00:19:24",
             "userid": "C0ufSyN",
             "name": "无名氏",
             "email": "",
             "title": "无标题",
             "content": "一般蓝屏是主板原因",
             "sage": "0",
             "admin": "0"
             },
             {
             "id": "10284776",
             "img": "",
             "ext": "",
             "now": "2016-10-29(六)00:26:07",
             "userid": "eAZhEqZ",
             "name": "无名氏",
             "email": "",
             "title": "无标题",
             "content": "CPU换个硅胶和散热风扇可解决问题",
             "sage": "0",
             "admin": "0"
             },
             {
             "id": "10285689",
             "img": "",
             "ext": "",
             "now": "2016-10-29(六)02:18:04",
             "userid": "eIZg645",
             "name": "无名氏",
             "email": "",
             "title": "无标题",
             "content": "我以前是家里总电闸刀接触不良电源引起硬盘蓝屏重启。",
             "sage": "0",
             "admin": "0"
             }
             ]
  },
  {
  "id": "10287367",
  "img": "",
  "ext": "",
  "now": "2016-10-29(六)10:36:47",
  "userid": "KKXPEXW",
  "name": "无名氏",
  "email": "",
  "title": "无标题",
  "content": "梦见被大雕萌妹给肛了 好气啊<br />\n早知道撩妹也会被性侵",
  "sage": "0",
  "admin": "0",
  "replyCount": "4",
  "replys": [
             {
             "id": "10287379",
             "img": "",
             "ext": "",
             "now": "2016-10-29(六)10:38:43",
             "userid": "9BCBoeo",
             "name": "无名氏",
             "email": "",
             "title": "无标题",
             "content": "气啥，不是更兴奋吗",
             "sage": "0",
             "admin": "0"
             },
             {
             "id": "10287899",
             "img": "",
             "ext": "",
             "now": "2016-10-29(六)11:32:04",
             "userid": "HeCRRm0",
             "name": "无名氏",
             "email": "",
             "title": "无标题",
             "content": "even better(〃∀〃)",
             "sage": "0",
             "admin": "0"
             },
             {
             "id": "10287916",
             "img": "",
             "ext": "",
             "now": "2016-10-29(六)11:33:34",
             "userid": "EyOYyxx",
             "name": "无名氏",
             "email": "",
             "title": "无标题",
             "content": "等等，为什么被肛不会出现缺失dll？",
             "sage": "0",
             "admin": "0"
             },
             {
             "id": "10287951",
             "img": "",
             "ext": "",
             "now": "2016-10-29(六)11:38:06",
             "userid": "4khnOcv",
             "name": "无名氏",
             "email": "",
             "title": "无标题",
             "content": "&gt;&gt;No.10287916<br />\r\n已经安装了该插件了吧",
             "sage": "0",
             "admin": "0"
             }
             ]
  }
  ]
